0.2199999988079071, 0.38999998569488525
0.38999998569488525, 0.8299999833106995
0.3799999952316284, 0.8399999737739563
0.23000000417232513, 0.8799999952316284
0.0, 0.949999988079071
0.0, 0.949999988079071
0.0, 0.9599999785423279
0.0, 0.9599999785423279
-0.09000000357627869, 0.949999988079071
-0.6800000071525574, 0.7599999904632568
-0.7699999809265137, 0.7300000190734863
-0.8299999833106995, 0.5799999833106995
-0.9599999785423279, 0.18000000715255737
-1.0199999809265137, 0.0
-0.9700000286102295, -0.18000000715255737
-0.8600000143051147, -0.46000000834465027
-0.7400000095367432, -0.75
-0.7300000190734863, -0.7599999904632568
-0.7300000190734863, -0.7599999904632568
-0.699999988079071, -0.7699999809265137
-0.17000000178813934, -0.9599999785423279
0.0, -1.0199999809265137
0.0, -1.0199999809265137
0.0, -1.0199999809265137
0.0, -1.0199999809265137
0.5600000023841858, -0.8399999737739563
0.7200000286102295, -0.7599999904632568
0.8199999928474426, -0.5400000214576721
1.0199999809265137, 0.0
1.0, 0.0
0.9300000071525574, 0.25999999046325684
0.7699999809265137, 0.699999988079071
0.6499999761581421, 0.7599999904632568
0.44999998807907104, 0.8299999833106995
0.0, 0.9599999785423279
0.0, 0.9700000286102295
0.0, 0.9700000286102295
-0.07999999821186066, 0.9700000286102295
-0.5299999713897705, 0.8199999928474426
-0.7599999904632568, 0.7300000190734863
-0.7599999904632568, 0.7300000190734863
-0.8500000238418579, 0.5
-0.9900000095367432, 0.07000000029802322
-1.0199999809265137, 0.0
-0.9599999785423279, -0.20999999344348907
-0.7900000214576721, -0.6299999952316284
-0.7300000190734863, -0.7599999904632568
-0.7200000286102295, -0.7599999904632568
-0.4699999988079071, -0.8600000143051147
0.0, -1.0199999809265137
0.0, -1.0199999809265137
0.0, -1.0199999809265137
0.0, -1.0199999809265137
0.47999998927116394, -0.8700000047683716
0.7200000286102295, -0.7599999904632568
0.7400000095367432, -0.6899999976158142
0.8399999737739563, -0.49000000953674316
1.0199999809265137, 0.0
1.0099999904632568, 0.0
0.8999999761581421, 0.3700000047683716
0.75, 0.7099999785423279
0.7400000095367432, 0.7200000286102295
0.36000001430511475, 0.8700000047683716
0.0, 0.9700000286102295
0.0, 0.9700000286102295
0.0, 0.9700000286102295
-0.09000000357627869, 0.9599999785423279
-0.5400000214576721, 0.8100000023841858
-0.7599999904632568, 0.7300000190734863
-0.7900000214576721, 0.6600000262260437
-0.9200000166893005, 0.28999999165534973
-1.0199999809265137, 0.0
-0.9700000286102295, -0.20000000298023224
-0.75, -0.7300000190734863
-0.7300000190734863, -0.7599999904632568
-0.7200000286102295, -0.7699999809265137
-0.6200000047683716, -0.800000011920929
-0.09000000357627869, -0.9900000095367432
0.0, -1.0199999809265137
0.0, -1.0199999809265137
0.0, -1.0199999809265137
0.0, -1.0199999809265137
0.25999999046325684, -0.9300000071525574
0.7200000286102295, -0.7599999904632568
0.7200000286102295, -0.7599999904632568
0.7400000095367432, -0.7099999785423279
0.7900000214576721, -0.5899999737739563
0.9900000095367432, -0.14000000059604645
1.0199999809265137, 0.0
1.0199999809265137, 0.0
1.0, 0.0
0.8600000143051147, 0.47999998927116394
0.7599999904632568, 0.7099999785423279
0.75, 0.7099999785423279
0.7200000286102295, 0.75
0.5899999737739563, 0.7799999713897705
0.3799999952316284, 0.8700000047683716
0.10000000149011612, 0.9399999976158142
0.0, 0.9700000286102295
0.0, 0.9800000190734863
0.0, 0.9800000190734863
0.0, 0.9800000190734863
-0.05000000074505806, 0.9800000190734863
-0.23000000417232513, 0.9200000166893005
-0.5400000214576721, 0.8100000023841858
-0.7300000190734863, 0.7400000095367432
-0.7900000214576721, 0.6899999976158142
-0.8500000238418579, 0.5099999904632568
-0.9100000262260437, 0.3400000035762787
-0.9599999785423279, 0.1599999964237213
-1.0199999809265137, 0.0
-1.0199999809265137, -0.05999999865889549
-0.9599999785423279, -0.23000000417232513
-0.8799999952316284, -0.4300000071525574
-0.7300000190734863, -0.7599999904632568
-0.7300000190734863, -0.7599999904632568
-0.7300000190734863, -0.7599999904632568
-0.6700000166893005, -0.7799999713897705
-0.5600000023841858, -0.8299999833106995
-0.17000000178813934, -0.9599999785423279
0.0, -1.0199999809265137
0.0, -1.0199999809265137
0.0, -1.0199999809265137
0.0, -1.0199999809265137
0.0, -1.0099999904632568
0.1899999976158142, -0.9599999785423279
0.46000000834465027, -0.8799999952316284
0.7099999785423279, -0.7799999713897705
0.7200000286102295, -0.7699999809265137
0.7200000286102295, -0.7699999809265137
0.75, -0.6600000262260437
0.8700000047683716, -0.4099999964237213
1.0199999809265137, 0.0
1.0199999809265137, 0.0
1.0, 0.0
0.9399999976158142, 0.23999999463558197
0.8100000023841858, 0.6100000143051147
0.75, 0.7099999785423279
0.7200000286102295, 0.7300000190734863
0.5899999737739563, 0.7799999713897705
0.3100000023841858, 0.8799999952316284
0.0, 0.9800000190734863
0.0, 0.9800000190734863
-0.05000000074505806, 0.9800000190734863
-0.05999999865889549, 0.9800000190734863
-0.5099999904632568, 0.8199999928474426
-0.7599999904632568, 0.7300000190734863
-0.8100000023841858, 0.5899999737739563
-0.8799999952316284, 0.3700000047683716
-0.9599999785423279, 0.07999999821186066
-0.8299999833106995, 0.0
0.20999999344348907, 0.0
